{
  "project_info": {
    "project_number": "90799395473",
    "firebase_url": "https://aby-seyara-6f57c-default-rtdb.firebaseio.com",
    "project_id": "aby-seyara-6f57c",
    "storage_bucket": "aby-seyara-6f57c.appspot.com"
  },
  "client": [
    {
      "client_info": {
        "mobilesdk_app_id": "1:90799395473:android:cf38c7a56c8e9432e22530",
        "android_client_info": {
          "package_name": "com.example.aby_seyara"
        }
      },
      "oauth_client": [
        {
          "client_id": "90799395473-ujpdf06i4076i2ubiu2b8t0bgr1b54tl.apps.googleusercontent.com",
          "client_type": 3
        }
      ],
      "api_key": [
        {
          "current_key": "AIzaSyDloH5AyM3x8O_hT8LEIlFguRK8dMdBV70"
        }
      ],
      "services": {
        "appinvite_service": {
          "other_platform_oauth_client": [
            {
              "client_id": "90799395473-ujpdf06i4076i2ubiu2b8t0bgr1b54tl.apps.googleusercontent.com",
              "client_type": 3
            }
          ]
        }
      }
    }
  ],
  "configuration_version": "1"
}